<svg xmlns="http://www.w3.org/2000/svg" width="14" height="14" viewBox="0 0 14 14">
  <g transform="translate(-50 -145)">
    <g transform="translate(50 145)" fill="none" stroke="#555" stroke-width="1">
      <rect width="14" height="14" stroke="none"/>
      <rect x="0.5" y="0.5" width="13" height="13" fill="none"/>
    </g>
    <rect width="6" height="2" transform="translate(54 151)" fill="#555"/>
  </g>
</svg>
